{
    "KPlugin": {
        "BugReportUrl": "https://bugs.kde.org/enter_bug.cgi?product=systemsettings&component=kcm_kaccounts",
        "Description": "Configure your internet accounts such as Google, Live, Owncloud",
        "Description[ar]": "اضبط حساباتك على الإنترنت كغوغل، لايف وسحابتك \"Owncloud\"",
        "Description[az]": "Google, Live, Owncloud kimi kimi hesabları ayarla",
        "Description[bg]": "Настройване на интернет акаунти като Google, Live, Owncloud",
        "Description[ca@valencia]": "Configura els vostres comptes d'Internet com Google, Live, Owncloud",
        "Description[ca]": "Configura els vostres comptes d'Internet com Google, Live, Owncloud",
        "Description[cs]": "Nastavte své webové účty jako např. Google, Live, Owncloud",
        "Description[de]": "Verwalten Sie Ihre Internet-Zugänge wie Google, Live und Owncloud",
        "Description[el]": "Διαμόρφωση διαδικτυακών λογαριασμών όπως Google, Live, Owncloud",
        "Description[en_GB]": "Configure your internet accounts such as Google, Live, Owncloud",
        "Description[eo]": "Agordu viajn interretajn kontojn kiel ekz. Google, Live, Owncloud",
        "Description[es]": "Configurar sus cuentas de internet, como Google, Live, Owncloud",
        "Description[eu]": "Konfiguratu zure interneteko kontuak, Google, Live, Owncloud eta halakoak",
        "Description[fi]": "Aseta internettilit kuten Google, Live, Owncloud",
        "Description[fr]": "Configurer vos comptes Internet, comme par exemple sur Google, Live, OwnCloud",
        "Description[gl]": "Configurar as túas contas de Internet como a de Google, Live ou Owncloud.",
        "Description[ia]": "Configura tu contos de internet tall como Google, Live, OwnCloud",
        "Description[id]": "Atur akun internet Anda seperti Google, Live, Owncloud",
        "Description[it]": "Configura i tuoi account internet come Google, Live, ownCloud",
        "Description[ja]": "Google, Live, Owncloud などのアカウントを設定",
        "Description[ka]": "დაამატეთ თქვენი ინტერნეტ-ანგარიშები. მაგ: Google, Live, Owncloud",
        "Description[ko]": "Google, Live, Owncloud 등 인터넷 계정 설정",
        "Description[lt]": "Konfigūruoti internetines paskyras, tokias kaip „Google“, „Live“, „Owncloud“",
        "Description[nl]": "Stel uw internetaccounts in zoals Google, Live, Owncloud",
        "Description[nn]": "Set opp nettkontoar, for eksempel for Google, Live eller ownCloud",
        "Description[pl]": "Tutaj ustaw swoje konto na: Google, Live, Owncloud",
        "Description[pt]": "Configura as as suas contas na Internet, como o Google, Live, Owncloud",
        "Description[pt_BR]": "Configure suas contas na Internet, como Google, Live, Owncloud",
        "Description[ru]": "Настройка учётных записей Google, Facebook, Jabber и других",
        "Description[sl]": "Konfigurirajte vašem spletne račune kot so Google, Live, Owncloud",
        "Description[sv]": "Anpassa Internetkonton såsom Google, Live, Owncloud",
        "Description[tr]": "Owncloud, Live veya Google gibi internet hesaplarınızı yapılandırın",
        "Description[uk]": "Налаштування ваших облікових записів у Google, Live, Owncloud тощо",
        "Description[x-test]": "xxConfigure your internet accounts such as Google, Live, Owncloudxx",
        "Description[zh_CN]": "配置您的网络账户，例如 Google、Live、OwnCloud 等",
        "Description[zh_TW]": "設定您的網路帳號，例如 Google、Live、Owncloud",
        "FormFactors": [
            "desktop",
            "handset",
            "tablet",
            "mediacenter"
        ],
        "Icon": "preferences-online-accounts",
        "Name": "Online Accounts",
        "Name[ar]": "حسابات الإنترنت",
        "Name[az]": "Onlayn istifadəçi hesabları",
        "Name[bg]": "Онлайн акаунти",
        "Name[ca@valencia]": "Comptes en línia",
        "Name[ca]": "Comptes en línia",
        "Name[cs]": "Účty online",
        "Name[de]": "Online-Zugänge",
        "Name[el]": "Διαδικτυακοί λογαριασμοί",
        "Name[en_GB]": "Online Accounts",
        "Name[eo]": "Enretaj kontoj",
        "Name[es]": "Cuentas en línea",
        "Name[eu]": "Lerroko kontuak",
        "Name[fi]": "Verkkotilit",
        "Name[fr]": "Comptes en ligne",
        "Name[gl]": "Contas de Internet",
        "Name[ia]": "Contos in linea",
        "Name[id]": "Akun Daring",
        "Name[it]": "Account in linea",
        "Name[ja]": "オンラインアカウント",
        "Name[ka]": "ონლაინ ანგარიშები",
        "Name[ko]": "온라인 계정",
        "Name[lt]": "Internetinės paskyros",
        "Name[nl]": "Online accounts",
        "Name[nn]": "Nett­kontoar",
        "Name[pl]": "Konta sieciowe",
        "Name[pt]": "Contas 'Online'",
        "Name[pt_BR]": "Contas online",
        "Name[ru]": "Учётные записи в Интернете",
        "Name[sl]": "Spletni računi",
        "Name[sv]": "Nätkonton",
        "Name[ta]": "இணைய கணக்குகள்",
        "Name[tr]": "Çevrimiçi Hesaplar",
        "Name[uk]": "Облікові записи в інтернеті",
        "Name[x-test]": "xxOnline Accountsxx",
        "Name[zh_CN]": "在线账户",
        "Name[zh_TW]": "線上帳號"
    },
    "X-KDE-Keywords": "network,google,live,owncloud,sync,online,accounts,synchronization,opendesktop,nextcloud,youtube,drive,hangouts,gmail,google calendar",
    "X-KDE-Keywords[ar]": ",شبكة,غوغل,جوجل,لايف,لايڤ,سحابتك,سحابة,جيميل,تقويم جوجل,تزامن",
    "X-KDE-Keywords[az]": "network,google,live,owncloud,sync,online,accounts,synchronization,opendesktop,nextcloud,youtube,drive,hangouts,gmail,google calendar,int. şəbəkəsi,canlı,eyniləşdirmə,hesablar,onlayn,google təqvim",
    "X-KDE-Keywords[bg]": "network,google,live,owncloud,sync,online,accounts,synchronization,opendesktop,nextcloud,youtube,drive,hangouts,gmail,google calendar",
    "X-KDE-Keywords[ca@valencia]": "xarxa,google,live,owncloud,sincronitza,en línia,comptes,sincronització,opendesktop,nextcloud,youtube,drive,hangouts,gmail,google calendar",
    "X-KDE-Keywords[ca]": "xarxa,google,live,owncloud,sincronitza,en línia,comptes,sincronització,opendesktop,nextcloud,youtube,drive,hangouts,gmail,google calendar",
    "X-KDE-Keywords[da]": "netværk,google,live,owncloud,sync,online,konti,synkronisering,opendesktop,nextcloud,youtube,drive,drev,hangouts,gmail,google calendar,kalender",
    "X-KDE-Keywords[de]": "Netzwerk,Abgleich,Konten,Zugänge",
    "X-KDE-Keywords[el]": "δίκτυο,google,live,owncloud,sync,επιγραμμικοί,λογαριασμοί,συγχρονισμός,opendesktop,nextcloud,youtube,drive,hangouts,gmail,google calendar",
    "X-KDE-Keywords[en_GB]": "network,google,live,owncloud,sync,online,accounts,synchronisation,opendesktop,nextcloud,youtube,drive,hangouts,gmail,google calendar",
    "X-KDE-Keywords[es]": "red,google,live,owncloud,sincronizar,en línea,cuentas,sincronización,opendesktop,nextcloud,youtube,drive,hangouts,gmail,calendario de google",
    "X-KDE-Keywords[eu]": "sarea,google,live,owncloud,sink,lerroan,kontuak,sinkronizatzea,opendesktop,nextcloud,youtube,drive,hangouts,gmail,google calendar",
    "X-KDE-Keywords[fi]": "verkko,google,live,owncloud,synkronointi,synkronoi,tahdistus,tahdista,tilit,opendesktop,nextcloud,youtube,drive,hangouts,gmail,google calendar,google-kalenteri",
    "X-KDE-Keywords[fr]": "réseau, google, en ligne, owncloud, sync, en ligne, comptes, synchronisation, opendesktop, nextcloud, youtube, lecteur, hangouts, gmail, google calendar",
    "X-KDE-Keywords[hu]": "hálózat,google,live,owncloud,szinkronizálás,online,fiókok,szinkronizálás,opendesktop,nextcloud,youtube,drive,hangouts,gmail,google naptár",
    "X-KDE-Keywords[ia]": "rete,google,live,owncloud,sync,online,contos,synchronisation,opendesktop,nextcloud,youtube,drive,hangouts,gmail,calendario de google",
    "X-KDE-Keywords[it]": "rete,google,live,owncloud,sync,online,account,sincronizzazione,opendesktop,nextcloud,youtube,drive,hangouts,gmail,google calendar",
    "X-KDE-Keywords[ja]": "network,google,live,owncloud,sync,online,accounts,synchronization,opendesktop,nextcloud,youtube,drive,hangouts,gmail,google calendar",
    "X-KDE-Keywords[ka]": "ქსელი,გუგლი,ლაივ,owncloud,სინქრონიზაცია,ონლაინ,ანგარიშები,სინქრონიზაცია,opendesktop,nextcloud,youtube,drive,hangouts,gmail,გუგლის კალენდარი",
    "X-KDE-Keywords[ko]": "network,google,live,owncloud,sync,online,accounts,synchronization,opendesktop,nextcloud,youtube,drive,hangouts,gmail,google calendar,구글,동기화,온라인,계정,유튜브,드라이브,행아웃,구글 캘린더,google 캘린더",
    "X-KDE-Keywords[lt]": "tinklas,google,live,owncloud,sinchorizuoti,sinchronizacija,sinchronizavimas,internetinės,internetines,paskyros,opendesktop,nextcloud,youtube,drive,diskas,hangouts,gmail,google calendar,google kalendorius",
    "X-KDE-Keywords[nl]": "netwerk,google,live,owncloud,sync,online,accounts,synchronisatie,opendesktop,nextcloud,youtube,station,hangouts,gmail,google-agenda",
    "X-KDE-Keywords[nn]": "nettverk,google,live,owncloud,synk,nett,kontoar,synkronisering,opendesktop,nextcloud,youtube,drive,hangouts,gmail,google calendar, google kalender",
    "X-KDE-Keywords[pl]": "sieć,google,na żywo,owncloud,synchronizacja,w sieci,konta,synchronizacja,opendesktop,nextcloud,youtube,dysk,hangouts,gmail,kalendarz google",
    "X-KDE-Keywords[pt]": "rede,google,live,owncloud,sincronizar,online,contas,sincronização,opendesktop,nextcloud,youtube,drive,hangouts,gmail,calendário da google",
    "X-KDE-Keywords[pt_BR]": "rede,google,live,owncloud,sincronizar,online,contas,sincronização,opendesktop,nextcloud,youtube,drive,hangouts,gmail,google calendar",
    "X-KDE-Keywords[ro]": "rețea,google,live,owncloud,sincronizare,online,conturi,sincronizează,opendesktop,nextcloud,youtube,drive,hangouts,gmail,google calendar,calendar google",
    "X-KDE-Keywords[ru]": "network,google,live,owncloud,sync,online,accounts,synchronization,opendesktop,nextcloud,youtube,drive,hangouts,gmail,google calendar,сеть,синхронизация,учётные записи,диск,календарь google",
    "X-KDE-Keywords[sl]": "omrežje,google,live,owncloud,sync,online,računi,sinhronizacija,opendesktop,nextcloud,youtube,pogon,hangouts,gmail,google calendar",
    "X-KDE-Keywords[sv]": "nätverk,google,direkt,owncloud,synkronisera,uppkopplad,konton,synkronisering,opendesktop,nextcloud,youtube,enhet,hangouts,gmail,google kalender",
    "X-KDE-Keywords[tr]": "ağ,google,live,oncloud,eşzamanla,sync,çevrimiçi,online,hesaplar,eşzamanlama,opendesktop,nextcloud,youtube,drive,hangouts,gmail,google takvim",
    "X-KDE-Keywords[uk]": "network,google,live,owncloud,sync,online,accounts,synchronization,opendesktop,nextcloud,youtube,drive,hangouts,gmail,google calendar,мережа,гугл,лайв,аунклауд,синхронізація,синхронізувати,інтернет,обліковий запис,записи,оупендесктоп,некстклауд,ютюб,диск,хенгаутс,жмейл,календар гугл",
    "X-KDE-Keywords[x-test]": "xxnetworkxx,xxgooglexx,xxlivexx,xxowncloudxx,xxsyncxx,xxonlinexx,xxaccountsxx,xxsynchronizationxx,xxopendesktopxx,xxnextcloudxx,xxyoutubexx,xxdrivexx,xxhangoutsxx,xxgmailxx,xxgoogle calendarxx",
    "X-KDE-Keywords[zh_CN]": "network,google,live,owncloud,sync,online,accounts,synchronization,opendesktop,nextcloud,youtube,drive,hangouts,gmail,google calendar,网络,同步,在线服务,账号,网络驱动器,网盘,日历,邮件",
    "X-KDE-System-Settings-Parent-Category": "network",
    "X-KDE-Weight": 20
}
